Sweep
…
http://www.business-science.io/code-tools/2017/10/25/demo_week_sweep.html

Data

Data taken from https://fred.stlouisfed.org/series/S4248SM144NCEN

beer_sales_tbl <- tq_get("S4248SM144NCEN", 
                         get = "economic.data", 
                         from = "2010-01-01", 
                         to = "2016-12-31")

beer_sales_tbl

## # A tibble: 84 x 2
##          date price
##        <date> <int>
##  1 2010-01-01  6558
##  2 2010-02-01  7481
##  3 2010-03-01  9475
##  4 2010-04-01  9424
##  5 2010-05-01  9351
##  6 2010-06-01 10552
##  7 2010-07-01  9077
##  8 2010-08-01  9273
##  9 2010-09-01  9420
## 10 2010-10-01  9413
## # ... with 74 more rows
…
# sw_augment - get model residuals
sw_augment(fit_arima, timetk_idx = TRUE)

## # A tibble: 84 x 4
##         index .actual   .fitted    .resid
##        <date>   <dbl>     <dbl>     <dbl>
##  1 2010-01-01    6558  6551.474  6.525878
##  2 2010-02-01    7481  7473.583  7.416765
##  3 2010-03-01    9475  9465.621  9.378648
##  4 2010-04-01    9424  9414.704  9.295526
##  5 2010-05-01    9351  9341.810  9.190414
##  6 2010-06-01   10552 10541.641 10.359293
##  7 2010-07-01    9077  9068.148  8.852178
##  8 2010-08-01    9273  9263.984  9.016063
##  9 2010-09-01    9420  9410.869  9.130943
## 10 2010-10-01    9413  9403.908  9.091831
## # ... with 74 more rows
…
Step 4 - Tidy the forecast

has_timetk_idx(fcast_arima)

## [1] TRUE

fcast_tbl <- sw_sweep(fcast_arima, timetk_idx = TRUE)

fcast_tbl

## # A tibble: 96 x 7
##         index    key price lo.80 lo.95 hi.80 hi.95
##  *     <date>  <chr> <dbl> <dbl> <dbl> <dbl> <dbl>
##  1 2010-01-01 actual  6558    NA    NA    NA    NA
##  2 2010-02-01 actual  7481    NA    NA    NA    NA
##  3 2010-03-01 actual  9475    NA    NA    NA    NA
##  4 2010-04-01 actual  9424    NA    NA    NA    NA
##  5 2010-05-01 actual  9351    NA    NA    NA    NA
##  6 2010-06-01 actual 10552    NA    NA    NA    NA
##  7 2010-07-01 actual  9077    NA    NA    NA    NA
##  8 2010-08-01 actual  9273    NA    NA    NA    NA
##  9 2010-09-01 actual  9420    NA    NA    NA    NA
## 10 2010-10-01 actual  9413    NA    NA    NA    NA
## # ... with 86 more rows
…
