TimeTK
…
Time Series Machine Learning

Get Data

FRED : https://fred.stlouisfed.org/series/S4248SM144NCEN

beer_sales_tbl <- tq_get("S4248SM144NCEN", 
                         get = "economic.data", 
                         from = "2010-01-01", 
                         to = "2016-12-31")

beer_sales_tbl

## # A tibble: 84 x 2
##          date price
##        <date> <int>
##  1 2010-01-01  6558
##  2 2010-02-01  7481
##  3 2010-03-01  9475
##  4 2010-04-01  9424
##  5 2010-05-01  9351
##  6 2010-06-01 10552
##  7 2010-07-01  9077
##  8 2010-08-01  9273
##  9 2010-09-01  9420
## 10 2010-10-01  9413
## # ... with 74 more rows
…
Time Series Machine Learning

Explore data

beer_sales_tbl

## # A tibble: 84 x 2
##          date price
##        <date> <int>
##  1 2010-01-01  6558
##  2 2010-02-01  7481
##  3 2010-03-01  9475
##  4 2010-04-01  9424
##  5 2010-05-01  9351
##  6 2010-06-01 10552
##  7 2010-07-01  9077
##  8 2010-08-01  9273
##  9 2010-09-01  9420
## 10 2010-10-01  9413
## # ... with 74 more rows
…
Augment Time Series Signature

beer_sales_tbl_aug <- beer_sales_tbl %>%
    tk_augment_timeseries_signature()

beer_sales_tbl_aug

## # A tibble: 84 x 30
##          date price  index.num    diff  year year.iso  half quarter month
##        <date> <int>      <int>   <int> <int>    <int> <int>   <int> <int>
##  1 2010-01-01  6558 1262304000      NA  2010     2009     1       1     1
##  2 2010-02-01  7481 1264982400 2678400  2010     2010     1       1     2
##  3 2010-03-01  9475 1267401600 2419200  2010     2010     1       1     3
##  4 2010-04-01  9424 1270080000 2678400  2010     2010     1       2     4
##  5 2010-05-01  9351 1272672000 2592000  2010     2010     1       2     5
##  6 2010-06-01 10552 1275350400 2678400  2010     2010     1       2     6
##  7 2010-07-01  9077 1277942400 2592000  2010     2010     2       3     7
##  8 2010-08-01  9273 1280620800 2678400  2010     2010     2       3     8
##  9 2010-09-01  9420 1283299200 2678400  2010     2010     2       3     9
## 10 2010-10-01  9413 1285891200 2592000  2010     2010     2       4    10
## # ... with 74 more rows, and 21 more variables: month.xts <int>,
## #   month.lbl <ord>, day <int>, hour <int>, minute <int>, second <int>,
## #   hour12 <int>, am.pm <int>, wday <int>, wday.xts <int>, wday.lbl <ord>,
## #   mday <int>, qday <int>, yday <int>, mweek <int>, week <int>,
## #   week.iso <int>, week2 <int>, week3 <int>, week4 <int>, mday7 <int>
…
